[

{   "id": 1,
    "title": "Велосипедні шорти",
    "price": "119 UAH",
    "img": "./photo-goods/cycling-shorts.avif",
    "article": 456789,
    "color": "чорний",
    "description": "обтислий фасон, тканина в рубчик, еластичний пояс, короткі штанини"
},

{   "id": 2,
    "title": "Футболка",
    "price": "99 UAH",
    "img": "./photo-goods/t-shirt.avif",
    "article": 345123,
    "color": "білий",
    "description": "100% бавовна, кругла горловина, короткі рукави, гладка тканина"
},

{   "id": 3,
    "title": "Двобортне пальто",
    "price": "649 UAH",
    "img": "./photo-goods/coat.avif",
    "article": 845634,
    "color": "різнобарвний",
    "description": "V-подібні лацкани, декоративна зав’язка, двобортна застібка, дві кишені з клапанами, ефектний розріз ззаду, гладка підкладка"
},

{   "id": 4,
    "title": "Футболка з принтом",
    "price": "99 UAH",
    "img": "./photo-goods/t-shirt-with-print.avif",
    "article": 914376,
    "color": "бежевий",
    "description": "100% бавовна, кругла горловина, короткі рукави, декоративний принт"
},

{   "id": 5,
    "title": "Трикотажні штани", 
    "price": "219 UAH",
    "img": "./photo-goods/pants.avif",
    "article": 246735,
    "color": "фуксія",
    "description": "еластичний пояс, зав’язуваний пояс, дві кишені, резинка по низу штанин, оздоблення з м’якого ворсу з внутрішнього боку"
},

{   "id": 6,
    "title": "Легінси з завищеною талією", 
    "price": "119 UAH",
    "img": "./photo-goods/leggings.avif",
    "article": 815236,
    "color": "сірий",
    "description": "обтислий фасон, висока посадка, гладка тканина"
},

{   "id": 7,
    "title": "Джинсова спідниця міді",
    "price": "599 UAH",
    "img": "./photo-goods/midi-skirt.webp",
    "article": 945638,
    "color": "бірюзовий",
    "description": "100% бавовна, довжина міді, варений ефект, чотири кишені, застібка на блискавку та ґудзик, ефектний розріз спереду, сире нижнє оздоблення"
},

{   "id": 8,
    "title": "Мідіспідниця",
    "price": "599 UAH",
    "img": "./photo-goods/denim-skirt.webp",
    "article": 746352,
    "color": "синій",
    "description": "довжина максі, застібка на блискавку та ґудзик, чотири кишені, сире нижнє оздоблення, ефектний розріз ззаду, легкий варений ефект"
},

{   "id": 9,
    "title": "Плісирована мідіспідниця",
    "price": "399 UAH", 
    "img": "./photo-goods/pleated-midi-skirt.avif",
    "article": 454563,
    "color": "пастельний рожевий",
    "description": "довжина міді, еластичний пояс, декоративні зборки"
},

{   "id": 10,
    "title": "Спідниця",
    "price": "129 UAH",
    "img": "./photo-goods/skirt.avif",
    "article": 767675,
    "color": "чорний",
    "description": "довжина міні, оборка по низу, декоративний принт, еластичний пояс"
},

{   "id": 11,
    "title": "Блузка зі збірками",
    "price": "169 UAH",
    "img": "./photo-goods/blouse-with-collections.webp",
    "article": 878734,
    "color": "світло-жовтий",
    "description": "кругла горловина, відкриті плечі, без рукавів, декоративні зборки"
},

{ "id": 12,
    "title": "Блузка з принтом", 
    "price": "169 UAH",
    "img": "./photo-goods/blouse.avif",
    "article": 232356,
    "color": "різнобарвний",
    "description" : "100% віскоза, V-подібний викот, відкриті плечі, декоративний принт"
}

]


